{
  "_embedded": {
    "orderItems": [
      {
        "id": 1,
        "quantity": 10,
        "price": 1000.0,
        "variant": {
          "id": 1
        },
        "_links": {
          "self": {
            "href": "http://localhost:8080/api/orderItems/1"
          },
          "orderItem": {
            "href": "http://localhost:8080/api/orderItems/1"
          },
          "order": {
            "href": "http://localhost:8080/api/orderItems/1/order"
          }
        }
      },
      {
        "id": 2,
        "quantity": 10,
        "price": 1000.0,
        "variant": {
          "id": 1
        },
        "_links": {
          "self": {
            "href": "http://localhost:8080/api/orderItems/2"
          },
          "orderItem": {
            "href": "http://localhost:8080/api/orderItems/2"
          },
          "order": {
            "href": "http://localhost:8080/api/orderItems/2/order"
          }
        }
      },
      {
        "id": 3,
        "quantity": 10,
        "price": 1000.0,
        "variant": {
          "id": 1
        },
        "_links": {
          "self": {
            "href": "http://localhost:8080/api/orderItems/3"
          },
          "orderItem": {
            "href": "http://localhost:8080/api/orderItems/3"
          },
          "order": {
            "href": "http://localhost:8080/api/orderItems/3/order"
          }
        }
      },
      {
        "id": 4,
        "quantity": 10,
        "price": 1000.0,
        "variant": null,
        "_links": {
          "self": {
            "href": "http://localhost:8080/api/orderItems/4"
          },
          "orderItem": {
            "href": "http://localhost:8080/api/orderItems/4"
          },
          "order": {
            "href": "http://localhost:8080/api/orderItems/4/order"
          }
        }
      },
      {
        "id": 5,
        "quantity": 10,
        "price": 1000.0,
        "variant": null,
        "_links": {
          "self": {
            "href": "http://localhost:8080/api/orderItems/5"
          },
          "orderItem": {
            "href": "http://localhost:8080/api/orderItems/5"
          },
          "order": {
            "href": "http://localhost:8080/api/orderItems/5/order"
          }
        }
      },
      {
        "id": 6,
        "quantity": 10,
        "price": 1000.0,
        "variant": null,
        "_links": {
          "self": {
            "href": "http://localhost:8080/api/orderItems/6"
          },
          "orderItem": {
            "href": "http://localhost:8080/api/orderItems/6"
          },
          "order": {
            "href": "http://localhost:8080/api/orderItems/6/order"
          }
        }
      },
      {
        "id": 7,
        "quantity": 10,
        "price": 1000.0,
        "variant": {
          "id": 1
        },
        "_links": {
          "self": {
            "href": "http://localhost:8080/api/orderItems/7"
          },
          "orderItem": {
            "href": "http://localhost:8080/api/orderItems/7"
          },
          "order": {
            "href": "http://localhost:8080/api/orderItems/7/order"
          }
        }
      },
      {
        "id": 9,
        "quantity": 10,
        "price": 1000.0,
        "variant": {
          "id": 1
        },
        "_links": {
          "self": {
            "href": "http://localhost:8080/api/orderItems/9"
          },
          "orderItem": {
            "href": "http://localhost:8080/api/orderItems/9"
          },
          "order": {
            "href": "http://localhost:8080/api/orderItems/9/order"
          }
        }
      },
      {
        "id": 10,
        "quantity": 10,
        "price": 1000.0,
        "variant": {
          "id": 1
        },
        "_links": {
          "self": {
            "href": "http://localhost:8080/api/orderItems/10"
          },
          "orderItem": {
            "href": "http://localhost:8080/api/orderItems/10"
          },
          "order": {
            "href": "http://localhost:8080/api/orderItems/10/order"
          }
        }
      },
      {
        "id": 11,
        "quantity": 10,
        "price": 1000.0,
        "variant": {
          "id": 1
        },
        "_links": {
          "self": {
            "href": "http://localhost:8080/api/orderItems/11"
          },
          "orderItem": {
            "href": "http://localhost:8080/api/orderItems/11"
          },
          "order": {
            "href": "http://localhost:8080/api/orderItems/11/order"
          }
        }
      },
      {
        "id": 12,
        "quantity": 10,
        "price": 1000.0,
        "variant": {
          "id": 1
        },
        "_links": {
          "self": {
            "href": "http://localhost:8080/api/orderItems/12"
          },
          "orderItem": {
            "href": "http://localhost:8080/api/orderItems/12"
          },
          "order": {
            "href": "http://localhost:8080/api/orderItems/12/order"
          }
        }
      },
      {
        "id": 13,
        "quantity": 10,
        "price": 1000.0,
        "variant": {
          "id": 1
        },
        "_links": {
          "self": {
            "href": "http://localhost:8080/api/orderItems/13"
          },
          "orderItem": {
            "href": "http://localhost:8080/api/orderItems/13"
          },
          "order": {
            "href": "http://localhost:8080/api/orderItems/13/order"
          }
        }
      },
      {
        "id": 14,
        "quantity": 10,
        "price": 1000.0,
        "variant": {
          "id": 1
        },
        "_links": {
          "self": {
            "href": "http://localhost:8080/api/orderItems/14"
          },
          "orderItem": {
            "href": "http://localhost:8080/api/orderItems/14"
          },
          "order": {
            "href": "http://localhost:8080/api/orderItems/14/order"
          }
        }
      },
      {
        "id": 15,
        "quantity": 10,
        "price": 1000.0,
        "variant": {
          "id": 1
        },
        "_links": {
          "self": {
            "href": "http://localhost:8080/api/orderItems/15"
          },
          "orderItem": {
            "href": "http://localhost:8080/api/orderItems/15"
          },
          "order": {
            "href": "http://localhost:8080/api/orderItems/15/order"
          }
        }
      },
      {
        "id": 16,
        "quantity": 10,
        "price": 1000.0,
        "variant": {
          "id": 1
        },
        "_links": {
          "self": {
            "href": "http://localhost:8080/api/orderItems/16"
          },
          "orderItem": {
            "href": "http://localhost:8080/api/orderItems/16"
          },
          "order": {
            "href": "http://localhost:8080/api/orderItems/16/order"
          }
        }
      },
      {
        "id": 17,
        "quantity": 10,
        "price": 1000.0,
        "variant": {
          "id": 1
        },
        "_links": {
          "self": {
            "href": "http://localhost:8080/api/orderItems/17"
          },
          "orderItem": {
            "href": "http://localhost:8080/api/orderItems/17"
          },
          "order": {
            "href": "http://localhost:8080/api/orderItems/17/order"
          }
        }
      },
      {
        "id": 18,
        "quantity": 10,
        "price": 1000.0,
        "variant": {
          "id": 1
        },
        "_links": {
          "self": {
            "href": "http://localhost:8080/api/orderItems/18"
          },
          "orderItem": {
            "href": "http://localhost:8080/api/orderItems/18"
          },
          "order": {
            "href": "http://localhost:8080/api/orderItems/18/order"
          }
        }
      },
      {
        "id": 19,
        "quantity": 10,
        "price": 1000.0,
        "variant": {
          "id": 1
        },
        "_links": {
          "self": {
            "href": "http://localhost:8080/api/orderItems/19"
          },
          "orderItem": {
            "href": "http://localhost:8080/api/orderItems/19"
          },
          "order": {
            "href": "http://localhost:8080/api/orderItems/19/order"
          }
        }
      },
      {
        "id": 20,
        "quantity": 10,
        "price": 1000.0,
        "variant": {
          "id": 1
        },
        "_links": {
          "self": {
            "href": "http://localhost:8080/api/orderItems/20"
          },
          "orderItem": {
            "href": "http://localhost:8080/api/orderItems/20"
          },
          "order": {
            "href": "http://localhost:8080/api/orderItems/20/order"
          }
        }
      },
      {
        "id": 21,
        "quantity": 10,
        "price": 1000.0,
        "variant": {
          "id": 1
        },
        "_links": {
          "self": {
            "href": "http://localhost:8080/api/orderItems/21"
          },
          "orderItem": {
            "href": "http://localhost:8080/api/orderItems/21"
          },
          "order": {
            "href": "http://localhost:8080/api/orderItems/21/order"
          }
        }
      }
    ]
  },
  "_links": {
    "first": {
      "href": "http://localhost:8080/api/orderItems?page=0&size=20"
    },
    "self": {
      "href": "http://localhost:8080/api/orderItems"
    },
    "next": {
      "href": "http://localhost:8080/api/orderItems?page=1&size=20"
    },
    "last": {
      "href": "http://localhost:8080/api/orderItems?page=3&size=20"
    },
    "profile": {
      "href": "http://localhost:8080/api/profile/orderItems"
    }
  },
  "page": {
    "size": 20,
    "totalElements": 63,
    "totalPages": 4,
    "number": 0
  }
}
