{
  "_embedded": {
    "orders": [
      {
        "id": 10,
        "active": null,
        "subTotal": null,
        "status": "WAIT_FOR_ACCEPT",
        "user": {
          "id": 1
        },
        "address": {
          "id": 7
        },
        "_links": {
          "self": {
            "href": "http://localhost:8080/api/orders/10"
          },
          "order": {
            "href": "http://localhost:8080/api/orders/10"
          },
          "items": {
            "href": "http://localhost:8080/api/orders/10/items"
          }
        }
      },
      {
        "id": 11,
        "active": null,
        "subTotal": null,
        "status": "WAIT_FOR_ACCEPT",
        "user": {
          "id": 1
        },
        "address": {
          "id": 7
        },
        "_links": {
          "self": {
            "href": "http://localhost:8080/api/orders/11"
          },
          "order": {
            "href": "http://localhost:8080/api/orders/11"
          },
          "items": {
            "href": "http://localhost:8080/api/orders/11/items"
          }
        }
      },
      {
        "id": 12,
        "active": null,
        "subTotal": null,
        "status": "WAIT_FOR_ACCEPT",
        "user": {
          "id": 1
        },
        "address": {
          "id": 7
        },
        "_links": {
          "self": {
            "href": "http://localhost:8080/api/orders/12"
          },
          "order": {
            "href": "http://localhost:8080/api/orders/12"
          },
          "items": {
            "href": "http://localhost:8080/api/orders/12/items"
          }
        }
      },
      {
        "id": 13,
        "active": null,
        "subTotal": null,
        "status": "WAIT_FOR_ACCEPT",
        "user": {
          "id": 1
        },
        "address": {
          "id": 7
        },
        "_links": {
          "self": {
            "href": "http://localhost:8080/api/orders/13"
          },
          "order": {
            "href": "http://localhost:8080/api/orders/13"
          },
          "items": {
            "href": "http://localhost:8080/api/orders/13/items"
          }
        }
      },
      {
        "id": 14,
        "active": null,
        "subTotal": null,
        "status": "WAIT_FOR_ACCEPT",
        "user": {
          "id": 1
        },
        "address": {
          "id": 7
        },
        "_links": {
          "self": {
            "href": "http://localhost:8080/api/orders/14"
          },
          "order": {
            "href": "http://localhost:8080/api/orders/14"
          },
          "items": {
            "href": "http://localhost:8080/api/orders/14/items"
          }
        }
      },
      {
        "id": 15,
        "active": null,
        "subTotal": null,
        "status": "WAIT_FOR_ACCEPT",
        "user": {
          "id": 1
        },
        "address": {
          "id": 7
        },
        "_links": {
          "self": {
            "href": "http://localhost:8080/api/orders/15"
          },
          "order": {
            "href": "http://localhost:8080/api/orders/15"
          },
          "items": {
            "href": "http://localhost:8080/api/orders/15/items"
          }
        }
      },
      {
        "id": 16,
        "active": null,
        "subTotal": null,
        "status": "WAIT_FOR_ACCEPT",
        "user": {
          "id": 1
        },
        "address": {
          "id": 7
        },
        "_links": {
          "self": {
            "href": "http://localhost:8080/api/orders/16"
          },
          "order": {
            "href": "http://localhost:8080/api/orders/16"
          },
          "items": {
            "href": "http://localhost:8080/api/orders/16/items"
          }
        }
      },
      {
        "id": 17,
        "active": null,
        "subTotal": null,
        "status": "WAIT_FOR_ACCEPT",
        "user": {
          "id": 1
        },
        "address": {
          "id": 7
        },
        "_links": {
          "self": {
            "href": "http://localhost:8080/api/orders/17"
          },
          "order": {
            "href": "http://localhost:8080/api/orders/17"
          },
          "items": {
            "href": "http://localhost:8080/api/orders/17/items"
          }
        }
      },
      {
        "id": 18,
        "active": null,
        "subTotal": null,
        "status": "WAIT_FOR_ACCEPT",
        "user": {
          "id": 1
        },
        "address": {
          "id": 7
        },
        "_links": {
          "self": {
            "href": "http://localhost:8080/api/orders/18"
          },
          "order": {
            "href": "http://localhost:8080/api/orders/18"
          },
          "items": {
            "href": "http://localhost:8080/api/orders/18/items"
          }
        }
      },
      {
        "id": 19,
        "active": null,
        "subTotal": null,
        "status": "WAIT_FOR_ACCEPT",
        "user": {
          "id": 1
        },
        "address": {
          "id": 7
        },
        "_links": {
          "self": {
            "href": "http://localhost:8080/api/orders/19"
          },
          "order": {
            "href": "http://localhost:8080/api/orders/19"
          },
          "items": {
            "href": "http://localhost:8080/api/orders/19/items"
          }
        }
      },
      {
        "id": 20,
        "active": null,
        "subTotal": null,
        "status": "WAIT_FOR_ACCEPT",
        "user": {
          "id": 1
        },
        "address": {
          "id": 7
        },
        "_links": {
          "self": {
            "href": "http://localhost:8080/api/orders/20"
          },
          "order": {
            "href": "http://localhost:8080/api/orders/20"
          },
          "items": {
            "href": "http://localhost:8080/api/orders/20/items"
          }
        }
      },
      {
        "id": 21,
        "active": null,
        "subTotal": null,
        "status": "WAIT_FOR_ACCEPT",
        "user": {
          "id": 1
        },
        "address": {
          "id": 7
        },
        "_links": {
          "self": {
            "href": "http://localhost:8080/api/orders/21"
          },
          "order": {
            "href": "http://localhost:8080/api/orders/21"
          },
          "items": {
            "href": "http://localhost:8080/api/orders/21/items"
          }
        }
      },
      {
        "id": 22,
        "active": null,
        "subTotal": null,
        "status": "WAIT_FOR_ACCEPT",
        "user": {
          "id": 1
        },
        "address": {
          "id": 7
        },
        "_links": {
          "self": {
            "href": "http://localhost:8080/api/orders/22"
          },
          "order": {
            "href": "http://localhost:8080/api/orders/22"
          },
          "items": {
            "href": "http://localhost:8080/api/orders/22/items"
          }
        }
      },
      {
        "id": 23,
        "active": null,
        "subTotal": null,
        "status": "WAIT_FOR_ACCEPT",
        "user": {
          "id": 1
        },
        "address": {
          "id": 7
        },
        "_links": {
          "self": {
            "href": "http://localhost:8080/api/orders/23"
          },
          "order": {
            "href": "http://localhost:8080/api/orders/23"
          },
          "items": {
            "href": "http://localhost:8080/api/orders/23/items"
          }
        }
      },
      {
        "id": 24,
        "active": null,
        "subTotal": null,
        "status": "WAIT_FOR_ACCEPT",
        "user": {
          "id": 1
        },
        "address": {
          "id": 7
        },
        "_links": {
          "self": {
            "href": "http://localhost:8080/api/orders/24"
          },
          "order": {
            "href": "http://localhost:8080/api/orders/24"
          },
          "items": {
            "href": "http://localhost:8080/api/orders/24/items"
          }
        }
      },
      {
        "id": 25,
        "active": null,
        "subTotal": null,
        "status": "WAIT_FOR_ACCEPT",
        "user": {
          "id": 1
        },
        "address": {
          "id": 7
        },
        "_links": {
          "self": {
            "href": "http://localhost:8080/api/orders/25"
          },
          "order": {
            "href": "http://localhost:8080/api/orders/25"
          },
          "items": {
            "href": "http://localhost:8080/api/orders/25/items"
          }
        }
      },
      {
        "id": 26,
        "active": null,
        "subTotal": null,
        "status": "WAIT_FOR_ACCEPT",
        "user": {
          "id": 1
        },
        "address": {
          "id": 7
        },
        "_links": {
          "self": {
            "href": "http://localhost:8080/api/orders/26"
          },
          "order": {
            "href": "http://localhost:8080/api/orders/26"
          },
          "items": {
            "href": "http://localhost:8080/api/orders/26/items"
          }
        }
      },
      {
        "id": 27,
        "active": null,
        "subTotal": null,
        "status": "WAIT_FOR_ACCEPT",
        "user": {
          "id": 1
        },
        "address": {
          "id": 7
        },
        "_links": {
          "self": {
            "href": "http://localhost:8080/api/orders/27"
          },
          "order": {
            "href": "http://localhost:8080/api/orders/27"
          },
          "items": {
            "href": "http://localhost:8080/api/orders/27/items"
          }
        }
      },
      {
        "id": 28,
        "active": null,
        "subTotal": null,
        "status": "WAIT_FOR_ACCEPT",
        "user": {
          "id": 1
        },
        "address": {
          "id": 7
        },
        "_links": {
          "self": {
            "href": "http://localhost:8080/api/orders/28"
          },
          "order": {
            "href": "http://localhost:8080/api/orders/28"
          },
          "items": {
            "href": "http://localhost:8080/api/orders/28/items"
          }
        }
      },
      {
        "id": 29,
        "active": null,
        "subTotal": null,
        "status": "WAIT_FOR_ACCEPT",
        "user": {
          "id": 1
        },
        "address": {
          "id": 7
        },
        "_links": {
          "self": {
            "href": "http://localhost:8080/api/orders/29"
          },
          "order": {
            "href": "http://localhost:8080/api/orders/29"
          },
          "items": {
            "href": "http://localhost:8080/api/orders/29/items"
          }
        }
      }
    ]
  },
  "_links": {
    "first": {
      "href": "http://localhost:8080/api/orders?page=0&size=20"
    },
    "self": {
      "href": "http://localhost:8080/api/orders"
    },
    "next": {
      "href": "http://localhost:8080/api/orders?page=1&size=20"
    },
    "last": {
      "href": "http://localhost:8080/api/orders?page=1&size=20"
    },
    "profile": {
      "href": "http://localhost:8080/api/profile/orders"
    }
  },
  "page": {
    "size": 20,
    "totalElements": 28,
    "totalPages": 2,
    "number": 0
  }
}
